[
  {
    "name": "HM1",
    "hdd": 600,
    "cpuCores": 8,
    "ram": 20
  },
  {
    "name": "HM2",
    "hdd": 100,
    "cpuCores": 8,
    "ram": 10
  },
  {
    "name": "HM3",
    "hdd": 200,
    "cpuCores": 4,
    "ram": 20
  }
]
